%YAML 1.1
%TAG !u! tag:unity3d.com,2011:
--- !u!1 &8770078275975017300
GameObject:
  m_ObjectHideFlags: 0
  m_CorrespondingSourceObject: {fileID: 0}
  m_PrefabInstance: {fileID: 0}
  m_PrefabAsset: {fileID: 0}
  serializedVersion: 6
  m_Component:
  - component: {fileID: 8770078275975017297}
  - component: {fileID: 8770078275975017301}
  - component: {fileID: 8770078275975017298}
  m_Layer: 0
  m_Name: Fridge
  m_TagString: Untagged
  m_Icon: {fileID: 0}
  m_NavMeshLayer: 0
  m_StaticEditorFlags: 0
  m_IsActive: 1
--- !u!4 &8770078275975017297
Transform:
  m_ObjectHideFlags: 0
  m_CorrespondingSourceObject: {fileID: 0}
  m_PrefabInstance: {fileID: 0}
  m_PrefabAsset: {fileID: 0}
  m_GameObject: {fileID: 8770078275975017300}
  m_LocalRotation: {x: -0, y: -1, z: -0, w: 0.00000058114523}
  m_LocalPosition: {x: -5.065277, y: -1.8644437, z: -4.089734}
  m_LocalScale: {x: 1, y: 1, z: 1}
  m_Children:
  - {fileID: 6759365107645781519}
  m_Father: {fileID: 0}
  m_RootOrder: 0
  m_LocalEulerAnglesHint: {x: 0, y: -180.00002, z: 0}
--- !u!114 &8770078275975017301
MonoBehaviour:
  m_ObjectHideFlags: 0
  m_CorrespondingSourceObject: {fileID: 0}
  m_PrefabInstance: {fileID: 0}
  m_PrefabAsset: {fileID: 0}
  m_GameObject: {fileID: 8770078275975017300}
  m_Enabled: 1
  m_EditorHideFlags: 0
  m_Script: {fileID: 11500000, guid: 00622b5e5fd023c4a9e283af3714c67e, type: 3}
  m_Name: 
  m_EditorClassIdentifier: 
  _actionToDoAfterShake: {fileID: 11400000, guid: 2267fd3e1a12cbd4abec8b02d99b094c,
    type: 2}
--- !u!65 &8770078275975017298
BoxCollider:
  m_ObjectHideFlags: 0
  m_CorrespondingSourceObject: {fileID: 0}
  m_PrefabInstance: {fileID: 0}
  m_PrefabAsset: {fileID: 0}
  m_GameObject: {fileID: 8770078275975017300}
  m_Material: {fileID: 0}
  m_IsTrigger: 1
  m_Enabled: 1
  serializedVersion: 2
  m_Size: {x: 1.9334087, y: 0.7996006, z: 2.213862}
  m_Center: {x: 0.67575264, y: 0.3809147, z: -1.637996}
--- !u!1001 &6504516991516733924
PrefabInstance:
  m_ObjectHideFlags: 0
  serializedVersion: 2
  m_Modification:
    m_TransformParent: {fileID: 8770078275975017297}
    m_Modifications:
    - target: {fileID: -8679921383154817045, guid: b6b1954f67490404ebeee7c02ed09214,
        type: 3}
      propertyPath: m_LocalPosition.x
      value: 0
      objectReference: {fileID: 0}
    - target: {fileID: -8679921383154817045, guid: b6b1954f67490404ebeee7c02ed09214,
        type: 3}
      propertyPath: m_LocalPosition.y
      value: 0
      objectReference: {fileID: 0}
    - target: {fileID: -8679921383154817045, guid: b6b1954f67490404ebeee7c02ed09214,
        type: 3}
      propertyPath: m_LocalPosition.z
      value: 0
      objectReference: {fileID: 0}
    - target: {fileID: -8679921383154817045, guid: b6b1954f67490404ebeee7c02ed09214,
        type: 3}
      propertyPath: m_LocalRotation.x
      value: 0
      objectReference: {fileID: 0}
    - target: {fileID: -8679921383154817045, guid: b6b1954f67490404ebeee7c02ed09214,
        type: 3}
      propertyPath: m_LocalRotation.y
      value: 0
      objectReference: {fileID: 0}
    - target: {fileID: -8679921383154817045, guid: b6b1954f67490404ebeee7c02ed09214,
        type: 3}
      propertyPath: m_LocalRotation.z
      value: 0
      objectReference: {fileID: 0}
    - target: {fileID: -8679921383154817045, guid: b6b1954f67490404ebeee7c02ed09214,
        type: 3}
      propertyPath: m_LocalRotation.w
      value: 1
      objectReference: {fileID: 0}
    - target: {fileID: -8679921383154817045, guid: b6b1954f67490404ebeee7c02ed09214,
        type: 3}
      propertyPath: m_RootOrder
      value: 0
      objectReference: {fileID: 0}
    - target: {fileID: -8679921383154817045, guid: b6b1954f67490404ebeee7c02ed09214,
        type: 3}
      propertyPath: m_LocalEulerAnglesHint.x
      value: 0
      objectReference: {fileID: 0}
    - target: {fileID: -8679921383154817045, guid: b6b1954f67490404ebeee7c02ed09214,
        type: 3}
      propertyPath: m_LocalEulerAnglesHint.y
      value: 0
      objectReference: {fileID: 0}
    - target: {fileID: -8679921383154817045, guid: b6b1954f67490404ebeee7c02ed09214,
        type: 3}
      propertyPath: m_LocalEulerAnglesHint.z
      value: 0
      objectReference: {fileID: 0}
    - target: {fileID: 919132149155446097, guid: b6b1954f67490404ebeee7c02ed09214,
        type: 3}
      propertyPath: m_Name
      value: FRIDGE
      objectReference: {fileID: 0}
    - target: {fileID: 919132149155446097, guid: b6b1954f67490404ebeee7c02ed09214,
        type: 3}
      propertyPath: m_StaticEditorFlags
      value: 0
      objectReference: {fileID: 0}
    m_RemovedComponents: []
  m_SourcePrefab: {fileID: 100100000, guid: b6b1954f67490404ebeee7c02ed09214, type: 3}
--- !u!4 &6759365107645781519 stripped
Transform:
  m_CorrespondingSourceObject: {fileID: -8679921383154817045, guid: b6b1954f67490404ebeee7c02ed09214,
    type: 3}
  m_PrefabInstance: {fileID: 6504516991516733924}
  m_PrefabAsset: {fileID: 0}
